Store Number, Street, City, State, Zip, Country, Phone
4111,"3710 State Line Ave.",Texarkana ,AR ,71854 ,USA,(870) 774-3146 
997,"4060 W. Ray Road",Chandler ,AZ ,85226 ,USA,(480) 491-1026 
981,"3145 S Alma School Road",Chandler ,AZ ,85248 ,USA,(480) 899-7102 
1021,"2935 E. Riggs Road",Chandler ,AZ ,85249 ,USA,(480) 802-1970 
967,"1416 E Route 66",Flagstaff ,AZ ,86001 ,USA,(928) 773-7955 
1023,"861 E Warner Road",Gilbert ,AZ ,85296 ,USA,(480) 558-0105 
929,"8454 S. Power Road",Gilbert ,AZ ,85297 ,USA,(480) 988-7280 
941,"5040 W. Cactus",Glendale ,AZ ,85304 ,USA,(602) 843-1871 
974,"20255 N 59Th Avenue",Glendale ,AZ ,85308 ,USA,(623) 572-7186 
1027,"1980 Mcculloch Blvd",Lake Havasu City ,AZ ,86403 ,USA,(928) 854-5300 
926,"12970  W. Indian School Rd.",Litchfield Park ,AZ ,85340 ,USA,(623) 535-7991 
980,"1951 W Baseline",Mesa ,AZ ,85202 ,USA,(480) 456-4373 
1002,"9243 E Baseline",Mesa ,AZ ,85212 ,USA,(480) 986-3060 
958,"325 S. Power Rd.",Mesa ,AZ ,85208 ,USA,(480) 924-9001 
989,"2727 N Power Rd",Mesa ,AZ ,85215 ,USA,(480) 396-9282 
948,"441 N. Val Vista",Mesa ,AZ ,85213 ,USA,(480) 830-5132 
991,"8240 W. Deer Valley Road",Peoria ,AZ ,85382 ,USA,(623) 572-5744 
971,"8950 W Bell Road",Peoria ,AZ ,85382 ,USA,(623) 876-8103 
952,"8035 N. 19Th Avenue",Phoenix ,AZ ,85021 ,USA,(602) 678-0895 
1004,"3130 W. Carefree Highway",Phoenix ,AZ ,85086 ,USA,(623) 582-4985 
985,"18411 N Cave Creek Rd",Phoenix ,AZ ,85032 ,USA,(602) 494-7388 
970,"10665 N Tatum Blvd",Phoenix ,AZ ,85028 ,USA,(480) 443-3098 
1025,"21001 North Tatum Blvd  Ste 76",Phoenix ,AZ ,85050 ,USA,(480) 342-8231 
953,"174 East Sheldon",Prescott ,AZ ,86301 ,USA,(928) 445-5613 
965,"7450 E Highway 69",Prescott Valley ,AZ ,86314 ,USA,(928) 775-2212 
979,"34442 N Scottsdale Road",Scottsdale ,AZ ,85262 ,USA,(480) 595-9419 
969,"15660 N Frank Lloyd Wright Blv",Scottsdale ,AZ ,85260 ,USA,(480) 451-9825 
966,"6965 N Hayden Road",Scottsdale ,AZ ,85250 ,USA,(480) 991-9707 
955,"2785 North Scottsdale Road",Scottsdale ,AZ ,85257 ,USA,(480) 947-6977 
983,"11475 E Via Linda",Scottsdale ,AZ ,85259 ,USA,(480) 767-0819 
1026,"16750 W. Bell Road",Surprise ,AZ ,85374 ,USA,(623) 546-3517 
977,"14551 West Grand Ave",Surprise ,AZ ,85375 ,USA,(623) 546-8038 
940,"750 E. Guadalupe",Tempe ,AZ ,85283 ,USA,(480) 820-8166 
959,"6363 E 22ND Street",Tucson ,AZ ,85710 ,USA,(520) 571-9091 
964,"9595 E. Broadway",Tucson ,AZ ,85748 ,USA,(520) 751-7699 
961,"2854 N Campbell",Tucson ,AZ ,85719 ,USA,(520) 321-1212 
963,"6600 E. Grant Rd.",Tucson ,AZ ,85715 ,USA,(520) 885-6109 
960,"7300 N. La Cholla Blvd",Tucson ,AZ ,85741 ,USA,(520) 575-0993 
988,"5085 N La Canada Drive",Tucson ,AZ ,85704 ,USA,(520) 696-0325 
972,"1350 N Silverbell Road",Tucson ,AZ ,85745 ,USA,(520) 623-7449 
931,"2378 West 24th Street",Yuma ,AZ ,85364 ,USA,(928) 343-2330 
951,"252 West 32nd Street",Yuma ,AZ ,85364 ,USA,(928) 726-9500 
6543,"2400 West Commonwealth Ave.",Alhambra ,CA ,91803 ,USA,(626) 293-7100 
6704,"2955 Alpine Blvd.",Alpine ,CA ,91901 ,USA,(619) 445-0231 
6194,"810 South State College Blvd",Anaheim ,CA ,92806 ,USA,(714) 533-4790 
6513,"20261 Highway 18",Apple Valley ,CA ,92307 ,USA,(760) 242-3660 
6561,"298 E. Live Oak Ave.",Arcadia ,CA ,91006 ,USA,(626) 446-1416 
6304,"1132 W Branch Street",Arroyo Grande ,CA ,93420 ,USA,(805) 473-0535 
6390,"8200 El Camino Real",Atascadero ,CA ,93422 ,USA,(805) 462-8059 
6336,"1520 Brundage Lane",Bakersfield ,CA ,93304 ,USA,(661) 328-0818 
6398,"6045 Coffee Rd",Bakersfield ,CA ,93308 ,USA,(661) 587-1291 
6379,"8200 East Stockdale Hwy",Bakersfield ,CA ,93311 ,USA,(661) 833-6071 
6358,"2691 Mt Vernon Avenue",Bakersfield ,CA ,93306 ,USA,(661) 872-0053 
6377,"13045 Rosedale Hwy",Bakersfield ,CA ,93312 ,USA,(661) 587-0153 
6325,"7900 White Lane",Bakersfield ,CA ,93309 ,USA,(661) 836-9691 
6323,"3500 Panama Lane",Bakersfield ,CA ,93313 ,USA,(661) 827-0394 
6512,"300 South Highland Springs #7",Banning ,CA ,92220 ,USA,(951) 769-1779 
6587,"840 East Hobson Way",Blythe ,CA ,92225 ,USA,(760) 922-4099 
6141,"2500 East Imperial Hwy",Brea ,CA ,92821 ,USA,(714) 671-1180 
6324,"222 East Highway 246",Buellton ,CA ,93427 ,USA,(805) 693-1069 
6105,"8880 Valley View Street",Buena Park ,CA ,90620 ,USA,(714) 236-8200 
6315,"3830 W Verdugo Avenue",Burbank ,CA ,91505 ,USA,(818) 954-0817 
6335,"26521 Agoura Road",Calabasas ,CA ,91302 ,USA,(818) 880-9080 
6385,"2400 East Las Posas Road",Camarillo ,CA ,93010 ,USA,(805) 987-1943 
6701,"955 Carlsbad Village Dr",Carlsbad ,CA ,92008 ,USA,(760) 729-1808 
6720,"7660 El Camino Real",Carlsbad ,CA ,92009 ,USA,(760) 633-3468 
6355,"1018 Casitas Pass Rd",Carpinteria ,CA ,91303 ,USA,(805) 684-4815 
6135,"110 East Carson Street",Carson ,CA ,90745 ,USA,(310) 835-6402 
6159,"200 E Sepulveda Blvd",Carson ,CA ,90745 ,USA,(310) 513-1900 
6524,"12013 Central Avenue",Chino ,CA ,91710 ,USA,(909) 464-1594 
6515,"3255 Grand Avenue",Chino Hills ,CA ,91709 ,USA,(909) 590-3660 
6592,"15970 Los Serranos Country Club Drive",Chino Hills ,CA ,91709 ,USA,(909) 606-8184 
6757,"720 - 3rd Avenue",Chula Vista ,CA ,91910 ,USA,(619) 498-5160 
6728,"260 West Foothill Pkwy",Corona ,CA ,92882 ,USA,(951) 340-1425 
6796,"1260 East Ontario Avenue",Corona ,CA ,92881 ,USA,(951) 734-8451 
6504,"3049 Coast Highway",Corona Del Mar ,CA ,92625 ,USA,(949) 675-8901 
6747,"150 B Avenue",Coronado ,CA ,92118 ,USA,(619) 234-1523 
6532,"2300-c Harbor Blvd",Costa Mesa ,CA ,92626 ,USA,(949) 515-7227 
6558,"33601 Del Obispo",Dana Point ,CA ,92629 ,USA,(949) 496-7900 
6702,"2707 Via De La Valle",Del Mar ,CA ,92014 ,USA,(858) 259-9303 
6554,"1235 S. Diamond Bar Bl.",Diamond Bar ,CA ,91765 ,USA,(909) 861-6207 
6140,"7676 Firestone Blvd",Downey ,CA ,90241 ,USA,(562) 869-9670 
6641,"7070 Archibald Ave.",Eastvale ,CA ,92880 ,USA,(951) 279-0333 
6771,"1608 Broadway St",El Cajon ,CA ,92021 ,USA,(619) 579-3127 
6783,"2899 Jamacha Rd",El Cajon ,CA ,92019 ,USA,(619) 660-9717 
6705,"1570 W Valley Parkway",Escondido ,CA ,92029 ,USA,(760) 738-1669 
6713,"1509 East Valley Parkway",Escondido ,CA ,92027 ,USA,(760) 735-5131 
6786,"1133 South Mission Road",Fallbrook ,CA ,92028 ,USA,(760) 723-8177 
6157,"16061 Brookhurst Street",Fountain Valley ,CA ,92708 ,USA,(714) 531-0417 
6170,"18579 Brookhurst",Fountain Valley ,CA ,92708 ,USA,(714) 963-7503 
6165,"2291 West Malvern Ave",Fullerton ,CA ,92833 ,USA,(714) 992-6099 
6119,"1930 N Placentia Ave",Fullerton ,CA ,92831 ,USA,(714) 792-2880 
6108,"1735 West Artesia Blvd",Gardena ,CA ,90247 ,USA,(310) 380-4620 
6601,"133 West Route 66",Glendora ,CA ,91740 ,USA,(626) 963-5358 
6357,"5801 Calle Real",Goleta ,CA ,93117 ,USA,(805) 964-2318 
6354,"7127 Hollister Ave. #27",Goleta ,CA ,93199 ,USA,(805) 968-3558 
6103,"12630 South Hawthorne Boulevard",Hawthorne ,CA ,90250 ,USA,(310) 675-9494 
6503,"7201 Boulder Avenue",Highland ,CA ,92346 ,USA,(909) 425-9100 
6124,"19640 Beach Boulevard",Huntington Beach ,CA ,92648 ,USA,(714) 964-7979 
6102,"16600 Bolsa Chica St.",Huntington Beach ,CA ,92649 ,USA,(714) 846-9431 
6110,"7201 Yorktown Avenue",Huntington Beach ,CA ,92648 ,USA,(714) 536-6449 
6507,"4541 Campus Dr",Irvine ,CA ,92612 ,USA,(949) 854-8282 
6596,"3825 Alton Parkway",Irvine ,CA ,92606 ,USA,(949) 476-1922 
6525,"3931 Irvine Blvd",Irvine ,CA ,92602 ,USA,(714) 734-5655 
6591,"14201 Jeffrey Road",Irvine ,CA ,92620 ,USA,(949) 733-0698 
6527,"6601 Quail Hill Parkway",Irvine ,CA ,92603 ,USA,(949) 509-6109 
6158,"1800 West Whittier Blvd",La Habra ,CA ,90631 ,USA,(562) 697-6442 
6710,"8920 Fletcher Parkway",La Mesa ,CA ,91941 ,USA,(619) 667-4343 
6148,"15200 East Rosecrans Avenue",La Mirada ,CA ,90638 ,USA,(714) 521-2310 
6552,"27702 Crown Valley Parkway Suite B",Ladera Ranch ,CA ,92694 ,USA,(949) 364-2040 
6575,"30922 Coast Hwy",Laguna Beach ,CA ,92651 ,USA,(949) 499-1733 
6556,"29941 Alicia Pky.",Laguna Niguel ,CA ,92677 ,USA,(949) 495-1891 
6508,"30241 Golden Lantern",Laguna Niguel ,CA ,92607 ,USA,(949) 363-0456 
6798,"30901 Riverside Drive",Lake Elsinore ,CA ,92530 ,USA,(951) 245-4461 
6526,"24251 Muirlands Blvd",Lake Forest ,CA ,92630 ,USA,(949) 581-1642 
6738,"9560 Winter Gardens Blvd",Lakeside ,CA ,92040 ,USA,(619) 561-5521 
6191,"5015 Del Amo Boulevard",Lakewood ,CA ,90712 ,USA,(562) 634-0405 
6322,"43543 20th Street West",Lancaster ,CA ,93536 ,USA,(661) 940-4747 
6707,"7090 Broadway",Lemon Grove ,CA ,91945 ,USA,(619) 463-4418 
6107,"2130 Pacific Coast Hwy",Lomita ,CA ,90717 ,USA,(310) 326-3351 
6339,"1500 North H Street",Lompoc ,CA ,93436 ,USA,(805) 735-1201 
6132,"101 East Willow Blvd",Long Beach ,CA ,90806 ,USA,(562) 988-8785 
6154,"6235 East Spring Street",Long Beach ,CA ,90808 ,USA,(562) 425-8456 
6131,"3901 Crenshaw Blvd",Los Angeles ,CA ,90008 ,USA,(323) 295-1919 
6387,"2035 Hillhurst Ave.",Los Angeles ,CA ,90027 ,USA,(323) 660-0687 
6168,"3443 South Sepulveda Blvd",Los Angeles ,CA ,90034 ,USA,(310) 390-7857 
6169,"8985 Venice Blvd Suite B",Los Angeles ,CA ,90034 ,USA,(310) 202-6167 
6104,"13401 Washington Boulevard",Marina Del Rey ,CA ,90292 ,USA,(310) 574-0606 
6549,"23072 Alicia Pkwy",Mission Viejo ,CA ,92692 ,USA,(949) 583-7337 
6517,"25872 Muirlands Blvd",Mission Viejo ,CA ,92691 ,USA,(949) 455-1961 
6181,"2469 Via Campo Street",Montebello ,CA ,90640 ,USA,(323) 888-2250 
6345,"730 Quintana Rd",Morro Bay ,CA ,93442 ,USA,(805) 772-0670 
6743,"41000 California Oaks Rd",Murrieta ,CA ,92562 ,USA,(951) 600-1027 
6734,"39140 Winchester Road",Murrieta ,CA ,92563 ,USA,(951) 600-4461 
6609,"28047 Scott Road",Murrieta ,CA ,92562 ,USA,(951) 246-1586 
6391,"541 South Reino Road",Newbury Park ,CA ,91320 ,USA,(805) 499-7795 
6359,"9022 Balboa Blvd",Northridge ,CA ,91325 ,USA,(818) 894-6415 
6733,"3450 Marron Road",Oceanside ,CA ,92056 ,USA,(760) 729-3468 
6767,"3925 Mission Ave.",Oceanside ,CA ,92058 ,USA,(760) 433-8107 
6740,"4150 Oceanside Blvd",Oceanside ,CA ,92056 ,USA,(760) 940-8282 
6585,"4550 East Chapman Avenue",Orange ,CA ,92869 ,USA,(714) 771-3139 
6551,"8440 East Chapman Avenue",Orange ,CA ,92867 ,USA,(714) 771-6996 
6534,"940 Tustin Ave",Orange ,CA ,92867 ,USA,(714) 633-2570 
6394,"1120 East Clark Ave.",Orcutt ,CA ,93455 ,USA,(805) 934-4472 
6217,"920 North Ventura Road",Oxnard ,CA ,93030 ,USA,(805) 983-0238 
6559,"74590 Highway 111",Palm Desert ,CA ,92260 ,USA,(760) 346-2566 
6567,"42095 Washington Street",Palm Desert ,CA ,92211 ,USA,(760) 360-6322 
6569,"1751 N. Sunrise Way (#1)",Palm Springs ,CA ,92262 ,USA,(760) 864-1141 
6333,"38727 Tierra Subida Ave",Palmdale ,CA ,93550 ,USA,(661) 274-9557 
6329,"5038 W Avenue N",Palmdale ,CA ,93551 ,USA,(661) 718-3732 
6511,"3841 East Sierra Madre Blvd",Pasadena ,CA ,91107 ,USA,(626) 351-0076 
6314,"189 Niblick Road",Paso Robles ,CA ,93446 ,USA,(805) 237-1626 
6741,"14837 Pomerado Road",Poway ,CA ,92064 ,USA,(858) 748-9555 
6725,"1459 Main Street",Ramona ,CA ,92065 ,USA,(760) 789-0023 
6523,"8850 Foothill Blvd.",Rancho Cucamonga ,CA ,91730 ,USA,(909) 484-7237 
6520,"11358 Kenyon Way",Rancho Cucamonga ,CA ,91737 ,USA,(909) 941-7166 
6586,"40101 Monterey Ave.",Rancho Mirage ,CA ,92270 ,USA,(760) 674-4769 
6519,"450 East Cypress Avenue",Redlands ,CA ,92373 ,USA,(909) 792-1114 
6189,"2115 Artesia Boulevard",Redondo Beach ,CA ,90278 ,USA,(310) 542-2122 
6127,"1516 S. Pacific Coast Hwy",Redondo Beach ,CA ,90277 ,USA,(310) 316-3551 
6138,"615 North Pacific Coast Highway",Redondo Beach ,CA ,90277 ,USA,(310) 376-2170 
6305,"19307 Saticoy Street",Reseda ,CA ,91335 ,USA,(818) 772-0010 
6376,"1301 North Norma Street",Ridgecrest ,CA ,93555 ,USA,(760) 446-2544 
6331,"927 South China Lake Boulevard",Ridgecrest ,CA ,93555 ,USA,(760) 384-4015 
6572,"2975 Van Buren Blvd",Riverside ,CA ,92503 ,USA,(951) 689-2252 
6514,"8938 Trautwein Road",Riverside ,CA ,92508 ,USA,(951) 656-6603 
6337,"2547 Rosamond",Rosamond ,CA ,93560 ,USA,(661) 256-0756 
6563,"989 Avendia Pico",San Clemente ,CA ,92673 ,USA,(949) 369-5466 
6509,"804 Avenida Pico",San Clemente ,CA ,92672 ,USA,(949) 492-1755 
6745,"655 14th Street",San Diego ,CA ,92101 ,USA,(619) 237-1247 
6742,"7895 Highland Village Place",San Diego ,CA ,92129 ,USA,(858) 780-9026 
6772,"14340 Penasquitos Drive",San Diego ,CA ,92129 ,USA,(858) 672-2552 
6781,"5950 Balboa Ave",San Diego ,CA ,92111 ,USA,(858) 694-0237 
6788,"730 Turquoise Street",San Diego ,CA ,92109 ,USA,(858) 488-0600 
6785,"8650 Lake Murray Blvd",San Diego ,CA ,92119 ,USA,(619) 697-8896 
6770,"10740 Westview Pkwy",San Diego ,CA ,92126 ,USA,(858) 578-7032 
6763,"12475 Rancho Bernardo Road",San Diego ,CA ,92128 ,USA,(858) 385-9223 
6760,"10633 Tierrasanta Blvd",San Diego ,CA ,92124 ,USA,(858) 565-2602 
6714,"2235 University Avenue",San Diego ,CA ,92104 ,USA,(619) 291-0540 
6709,"5185 Waring Road",San Diego ,CA ,92120 ,USA,(619) 582-1607 
6715,"422 West Washington Street",San Diego ,CA ,92103 ,USA,(619) 291-1277 
6594,"220 East Bonita Avenue",San Dimas ,CA ,91773 ,USA,(909) 599-8836 
6372,"771 E Foothill Blvd",San Luis Obispo ,CA ,93405 ,USA,(805) 541-1285 
UNK,"1321 Johnson Ave",San Luis Obispo ,CA ,93401 ,USA,(805) 596-0867 
6711,"1929 W. San Marcos Bl.",San Marcos ,CA ,92078 ,USA,(760) 598-7272 
6750,"1571 San Elijo Road S.",San Marcos ,CA ,92078 ,USA,(760) 798-1058 
6708,"151 Woodland Parkway",San Marcos ,CA ,92069 ,USA,(760) 736-8880 
6160,"1636 West 25th Street",San Pedro ,CA ,90732 ,USA,(310) 831-1161 
6164,"28090 South Western Avenue",San Pedro ,CA ,90732 ,USA,(310) 831-1323 
6598,"2000 East 17th Street",Santa Ana ,CA ,92705 ,USA,(714) 541-9100 
6351,"2010 Cliff Drive",Santa Barbara ,CA ,93109 ,USA,(805) 966-5011 
6352,"3943 State Street",Santa Barbara ,CA ,93105 ,USA,(805) 967-5685 
6348,"2320 South Broadway",Santa Maria ,CA ,93454 ,USA,(805) 346-2077 
6162,"2627 Lincoln Boulevard",Santa Monica ,CA ,90405 ,USA,(310) 452-3811 
6727,"9870 Magnolia Ave",Santee ,CA ,92071 ,USA,(619) 449-4217 
6360,"27631 West Bouquet Canyon Road",Saugus ,CA ,91350 ,USA,(661) 296-9655 
6363,"2800 Cochran",Simi Valley ,CA ,93065 ,USA,(805) 522-9000 
6317,"5135 Los Angeles Avenue",Simi Valley ,CA ,93063 ,USA,(805) 520-9293 
6393,"1268 Madera Road",Simi Valley ,CA ,93065 ,USA,(805) 520-9306 
6723,"9831 Campo Road",Spring Valley ,CA ,91977 ,USA,(619) 462-6290 
6758,"543 Sweetwater Road",Spring Valley ,CA ,91979 ,USA,(619) 461-5700 
6382,"1044 W Kern St",Taft ,CA ,93268 ,USA,(661) 765-4944 
6347,"775 S Tucker Road",Tehachapi ,CA ,93561 ,USA,(661) 823-7090 
6753,"31960 Temecula Pkwy",Temecula ,CA ,92592 ,USA,(951) 303-1133 
6706,"30530 Rancho California Road",Temecula ,CA ,92591 ,USA,(951) 694-0244 
UNK,"1736 E Avenida De Los Arboles",Thousand Oaks ,CA ,91362 ,USA,(805) 493-1551 
6153,"21035 Hawthorne Boulevard",Torrance ,CA ,90503 ,USA,(310) 540-6824 
6521,"21672 Plano Trabuco Road",Trabuco Canyon ,CA ,92679 ,USA,(949) 589-3780 
6397,"6240 Foothill Blvd",Tujunga ,CA ,91042 ,USA,(818) 248-2745 
6574,"13270 Newport Avenue",Tustin ,CA ,92780 ,USA,(714) 544-8525 
6589,"1910 N. Campus Ave.",Upland ,CA ,91784 ,USA,(909) 946-4447 
6301,"23850 Copperhill Dr",Valencia ,CA ,91354 ,USA,(661) 775-0163 
6318,"7800 Telegraph Road",Ventura ,CA ,93004 ,USA,(805) 647-0023 
6797,"1601 South Melrose Dr",Vista ,CA ,92081 ,USA,(760) 598-0142 
6201,"1301 East Vista Way",Vista ,CA ,92084 ,USA,(760) 806-2785 
6557,"2630 East Workman Avenue",West Covina ,CA ,91791 ,USA,(626) 331-5532 
UNK,"5770 Lindero Canyon Rd",Westlake Village ,CA ,91362 ,USA,(818) 889-9819 
6145,"6755 Westminster Boulevard",Westminster ,CA ,92683 ,USA,(714) 898-3668 
6735,"23893 Clinton Keith Road",Wildomar ,CA ,92595 ,USA,(951) 600-4607 
6510,"21500 Yorba Linda Blvd.",Yorba Linda ,CA ,92887 ,USA,(714) 693-7488 
899,"6100 S. Gun Club Road",Aurora ,CO ,80016 ,USA,(303) 400-4870 
841,"1200 S. Buckley Road",Aurora ,CO ,80011 ,USA,(303) 750-6802 
895,"7450 South University",Centennial ,CO ,80122 ,USA,(303) 773-9696 
858,"455 E Cheyenne Mtn Blvd",Colorado Springs ,CO ,80906 ,USA,(719) 576-3310 
879,"4405 Centennial Blvd",Colorado Springs ,CO ,80919 ,USA,(719) 593-8805 
840,"8750 N Union Blvd",Colorado Springs ,CO ,80920 ,USA,(719) 282-9066 
UNK,"7055 Austin Bluffs Parkway",Colorado Springs ,CO ,80923 ,USA,(719) 264-8650 
885,"323 S. Broadway",Denver ,CO ,80209 ,USA,(303) 744-8531 
836,"200 Quebec St #400",Denver ,CO ,80230 ,USA,(303) 340-4455 
801,"311 W. College Dr.",Durango ,CO ,81301 ,USA,(970) 382-2224 
862,"3660 S. Mason St.",Fort Collins ,CO ,80525 ,USA,(970) 223-3221 
876,"731 S. Lemay",Fort Collins ,CO ,80524 ,USA,(970) 221-5845 
886,"1830 North 12th Street",Grand Junction ,CO ,81501 ,USA,(970) 241-8536 
897,"2512 Broadway",Grand Junction ,CO ,81503 ,USA,(970) 257-0072 
839,"8434 South Kipling Parkway",Littleton ,CO ,80128 ,USA,(720) 922-0305 
812,"910 West Cherry Ave",Louisville ,CO ,80027 ,USA,(303) 666-8950 
804,"1451 W. Eisenhower Blvd.",Loveland ,CO ,80538 ,USA,(970) 593-9779 
881,"500 E. 120TH Ave.",Northglenn ,CO ,80233 ,USA,(303) 450-2462 
816,"1601 Highway 50 West",Pueblo ,CO ,81008 ,USA,(719) 543-5671 
1837,"1545 S Prairie Ave",Pueblo ,CO ,81005 ,USA,(719) 561-9101 
892,"3840 East 104TH Avenue",Thornton ,CO ,80229 ,USA,(303) 255-0596 
4304,"503 E Altamonte Dr",Altamonte Springs ,FL ,32701 ,USA,(407) 834-7424 
4301,"2170 Gulf-To-Bay Blvd",Clearwater ,FL ,33765 ,USA,(727) 441-8676 
4402,"10500 Ulmerton Rd E #800",East Largo ,FL ,33771 ,USA,(727) 581-2112 
4319,"950 Northeast 50Th St",Oakland Park ,FL ,33334 ,USA,(954) 491-0551 
174,"1901 South 25th East",Ammon ,ID ,83406 ,USA,(208) 524-8100 
101,"1650 W State St",Boise ,ID ,83702 ,USA,(208) 342-5651 
189,"3614 West State Street",Boise ,ID ,83703 ,USA,(208) 426-9614 
119,"1219 Broadway Avenue",Boise ,ID ,83706 ,USA,(208) 336-5278 
154,"1520 North Cole Road",Boise ,ID ,83704 ,USA,(208) 375-2542 
184,"6560 South Federal Way",Boise ,ID ,83716 ,USA,(208) 429-1084 
177,"4700 North Eagle Road",Boise ,ID ,83713 ,USA,(208) 939-5145 
161,"10700 Ustick Rd",Boise ,ID ,83713 ,USA,(208) 322-7744 
156,"7100 W State St",Boise ,ID ,83703 ,USA,(208) 342-2756 
160,"10500 Overland Road",Boise ,ID ,83709 ,USA,(208) 377-0932 
162,"5100 Overland Rd",Boise ,ID ,83705 ,USA,(208) 336-1372 
169,"909 East Parkcenter Blvd",Boise ,ID ,83706 ,USA,(208) 345-3180 
193,"1653 South Vista Avenue",Boise ,ID ,83705 ,USA,(208) 331-1953 
103,"415 Cleveland Blvd",Caldwell ,ID ,83605 ,USA,(208) 459-3411 
166,"2500 Blaine Street",Caldwell ,ID ,83605 ,USA,(208) 454-1271 
243,"220 Ironwood Dr",Coeur D'alene ,ID ,83814 ,USA,(208) 664-9101 
182,"250 South Eagle Road",Eagle ,ID ,83616 ,USA,(208) 939-9850 
126,"640 Highway 16",Emmett ,ID ,83617 ,USA,(208) 365-4420 
130,"911 Main Street North",Hailey ,ID ,83333 ,USA,(208) 788-6709 
254,"161 West Prairie Avenue",Hayden ,ID ,83835 ,USA,(208) 772-7473 
138,"590 East 17th Street",Idaho Falls ,ID ,83404 ,USA,(208) 523-0950 
145,"1705 West Broadway",Idaho Falls ,ID ,83402 ,USA,(208) 522-3392 
238,"1024 21st Street",Lewiston ,ID ,83501 ,USA,(208) 743-1561 
164,"20 East Fairview",Meridian ,ID ,83642 ,USA,(208) 888-4792 
180,"3301 W Cherry Lane",Meridian ,ID ,83642 ,USA,(208) 884-5471 
165,"528 North Main Street",Mountain Home ,ID ,83647 ,USA,(208) 587-5460 
102,"715 12th Ave South",Nampa ,ID ,83651 ,USA,(208) 466-2481 
176,"2400 12th Avenue Road",Nampa ,ID ,83686 ,USA,(208) 465-6597 
168,"405 South 8th",Payette ,ID ,83661 ,USA,(208) 642-9075 
159,"330 E Benton",Pocatello ,ID ,83201 ,USA,(208) 233-0455 
171,"490 N 2nd E",Rexburg ,ID ,83440 ,USA,(208) 356-0555 
139,"1221 Addison Ave East",Twin Falls ,ID ,83301 ,USA,(208) 733-3573 
2715,"2265 S. Macarthur Dr.",Alexandria ,LA ,71301 ,USA,(318) 487-9395 
2747,"15128 Airline Hwy.",Baton Rouge ,LA ,70817 ,USA,(225) 751-2808 
2712,"9650 Airline Hwy",Baton Rouge ,LA ,70815 ,USA,(225) 926-9304 
2792,"9960 Bluebonnet Blvd.",Baton Rouge ,LA ,70810 ,USA,(225) 768-7775 
2709,"2950 College Drive",Baton Rouge ,LA ,70808 ,USA,(225) 924-6084 
2713,"15232 George O'Neal Rd.",Baton Rouge ,LA ,70817 ,USA,(225) 753-0700 
2750,"4857 Government Street",Baton Rouge ,LA ,70806 ,USA,(225) 216-7226 
2711,"7515 Perkins Road",Baton Rouge ,LA ,70808 ,USA,(225) 769-6100 
4220,"3121 E Texas St",Bossier City ,LA ,71111 ,USA,(318) 742-9971 
2756,"1210 Albertson Parkway",Broussard ,LA ,70518 ,USA,(337) 839-1717 
4038,"402 S. Range Ave ",Denham Springs ,LA ,70726 ,USA,(225) 667-8907 
2714,"1801 W. Thomas Street",Hammond ,LA ,70401 ,USA,(985) 542-9720 
2720,"2678 Johnston Street",Lafayette ,LA ,70503 ,USA,(337) 233-2940 
2719,"4400 Ambassador Caffery",Lafayette ,LA ,70508 ,USA,(337) 984-4587 
2775,"2863 Ambassador Caffery",Lafayette ,LA ,70506 ,USA,(337) 406-8887 
2717,"4060 Ryan Street, South ",Lake Charles ,LA ,70605 ,USA,(337) 478-8995 
2798,"2750 Country Club Rd",Lake Charles ,LA ,70605 ,USA,(337) 480-0424 
2814,"3450 Highway 190",Mandeville ,LA ,70471 ,USA,(985) 626-4460 
4218,"105 E Southfield Road",Shreveport ,LA ,71105 ,USA,(318) 869-1646 
2022,"1300 E Park Ave",Anaconda ,MT ,59711 ,USA,(406) 563-5238 
2009,"6999 Jackrabbit Lane",Belgrade ,MT ,59714 ,USA,(406) 388-0901 
2038,"1212 Grand Street",Billings ,MT ,59102 ,USA,(406) 245-4118 
2030,"2334 Central Ave",Billings ,MT ,59102 ,USA,(406) 656-8160 
2025,"611 North 27th St",Billings ,MT ,59101 ,USA,(406) 248-7474 
2047,"511 Central Avenue",Billings ,MT ,59102 ,USA,(406) 245-0115 
2027,"670 Main",Billings ,MT ,59105 ,USA,(406) 245-8792 
2041,"3137 Grand Ave",Billings ,MT ,59102 ,USA,(406) 652-8370 
2006,"200 South 23rd Street",Bozeman ,MT ,59718 ,USA,(406) 587-8800 
2007,"1301 Harrison Avenue",Butte ,MT ,59701 ,USA,(406) 723-7944 
2033,"501 West Main",Cut Bank ,MT ,59427 ,USA,(406) 873-5035 
2012,"620 1st Ave North",Glasgow ,MT ,59230 ,USA,(407) 228-8252 
2023,"307 North Harmon",Glendive ,MT ,59330 ,USA,(406) 365-3324 
2037,"2250 10th Ave South",Great Falls ,MT ,59405 ,USA,(406) 727-3700 
2035,"1414 3rd St N W",Great Falls ,MT ,59404 ,USA,(406) 761-6800 
2040,"1313 North 1st St",Hamilton ,MT ,59840 ,USA,(406) 363-4555 
2032,"117 Main Street S",Harlem ,MT ,59526 ,USA,(406) 353-2225 
2004,"600 Fee Street",Helena ,MT ,59601 ,USA,(406) 442-1052 
2008,"3151 North Montana Ave",Helena ,MT ,59602 ,USA,(406) 443-8557 
2018,"900 West Idaho",Kalispell ,MT ,59901 ,USA,(406) 257-7127 
2019,"117 West Janeaux Street",Lewistown ,MT ,59457 ,USA,(406) 538-5454 
2042,"2120 Park Street South",Livingston ,MT ,59047 ,USA,(406) 222-1177 
2013,"30 South 3rd St. East",Malta ,MT ,59538 ,USA,(406) 654-2041 
2039,"519 S Haynes",Miles City ,MT ,59301 ,USA,(406) 232-2580 
2024,"1003 East Broadway Street",Missoula ,MT ,59802 ,USA,(406) 549-2351 
2043,"2230 North Reserve Street",Missoula ,MT ,59808 ,USA,(406) 728-1116 
2020,"2205 Oxford Street",Missoula ,MT ,59801 ,USA,(406) 549-5105 
2010,"3800 Russell Street",Missoula ,MT ,59801 ,USA,(406) 549-1547 
2014,"130 5th Ave North",Shelby ,MT ,59474 ,USA,(406) 434-5581 
2015,"415 Blaine",Wolf Point ,MT ,59201 ,USA,(406) 653-1700 
2028,"20 26th Street East",Williston ,ND ,58801 ,USA,(701) 572-1097 
939,"12201 Academy Road NE",Albuquerque ,NM ,87111 ,USA,(505) 275-7000 
922,"6600 Central Ave S W",Albuquerque ,NM ,87121 ,USA,(505) 831-3121 
915,"6200 Coors Blvd NW",Albuquerque ,NM ,87120 ,USA,(505) 897-1800 
937,"10131 Coors Rd",Albuquerque ,NM ,87114 ,USA,(505) 897-3884 
911,"2801 A Eubank Blvd NE ",Albuquerque ,NM ,87112 ,USA,(505) 298-7571 
917,"1625 Rio Bravo Blvd. S.W.",Albuquerque ,NM ,87105 ,USA,(505) 873-2758 
905,"2910 Juan Tabo Blvd NE",Albuquerque ,NM ,87112 ,USA,(505) 299-3800 
928,"11825 Lomas Blvd NE",Albuquerque ,NM ,87112 ,USA,(505) 293-9280 
904,"4950 Montgomery NE",Albuquerque ,NM ,87109 ,USA,(505) 883-8706 
924,"8100 Ventura Street NE",Albuquerque ,NM ,87122 ,USA,(505) 822-8383 
938,"7101 Wyoming NE",Albuquerque ,NM ,87109 ,USA,(505) 821-9655 
907,"808 N Canal",Carlsbad ,NM ,88220 ,USA,(505) 885-2161 
916,"1905 N. Prince",Clovis ,NM ,88101 ,USA,(575) 769-2127 
1824,"4909 E Main",Farmington ,NM ,87402 ,USA,(505) 325-1486 
902,"1702 E 66TH Ave Zecca Plaza ",Gallup ,NM ,87301 ,USA,(505) 722-4457 
930,"2402 North Grimes",Hobbs ,NM ,88240 ,USA,(505) 392-4514 
909,"1285 S El Paseo Road",Las Cruces ,NM ,88001 ,USA,(575) 523-5538 
913,"2501 N. Main",Las Cruces ,NM ,88001 ,USA,(575) 524-1980 
925,"2551 East Lohman",Las Cruces ,NM ,88011 ,USA,(575) 521-9837 
919,"2351 Main Street, S.E. ",Los Lunas ,NM ,87031 ,USA,(505) 865-3313 
923,"7800 Enchanted Hills Dr. NE",Rio Rancho ,NM ,87144 ,USA,(505) 771-7082 
903,"4300 Ridgecrest Drive",Rio Rancho ,NM ,87124 ,USA,(505) 892-0122 
912,"3301 Southern Blvd. SE ",Rio Rancho ,NM ,87122 ,USA,(505) 891-0495 
990,"1110 South Main Street",Roswell ,NM ,88203 ,USA,(505) 623-9300 
927,"600 N Guadalupe",Santa Fe ,NM ,87501 ,USA,(505) 982-4668 
986,"3542 Zafarano Drive",Santa Fe ,NM ,87507 ,USA,(505) 471-1877 
987,"3001 S St Francis Drive",Santa Fe ,NM ,87501 ,USA,(505) 992-8663 
914,"1956 Hwy. 180 E",Silver City ,NM ,88062 ,USA,(575) 388-1909 
920,"710 A Paseo del Pueblo Sur",Taos ,NM ,87571 ,USA,(575) 758-1250 
6093,"1008 Nevada Highway",Boulder City ,NV ,89005 ,USA,(702) 293-7611 
155,"2582 Idaho St",Elko ,NV ,89801 ,USA,(775) 738-8016 
6028,"2910 Bicentennail Parkway",Henderson ,NV ,89044 ,USA,(702) 567-1023 
6014,"575 College Drive",Henderson ,NV ,89015 ,USA,(702) 568-0115 
6043,"2851 North Green Valley Parkway",Henderson ,NV ,89014 ,USA,(702) 435-9844 
6019,"190 North Boulder Highway",Henderson ,NV ,89015 ,USA,(702) 565-3068 
6002,"201 South Stephanie Street",Henderson ,NV ,89012 ,USA,(702) 269-1502 
6090,"7075 West Ann Road",Las Vegas ,NV ,89130 ,USA,(702) 839-2727 
6032,"4800 Blue Diamond Road",Las Vegas ,NV ,89139 ,USA,(702) 260-0318 
6059,"5500 Boulder Hwy",Las Vegas ,NV ,89122 ,USA,(702) 435-6777 
6045,"1760 East Charleston Boulevard",Las Vegas ,NV ,89104 ,USA,(702) 366-1550 
6016,"10250 West Charleston Blvd.",Las Vegas ,NV ,89135 ,USA,(702) 838-4322 
6061,"4850 West Craig Road",Las Vegas ,NV ,89032 ,USA,(702) 515-1455 
6060,"11720 W. Charleston Blvd.",Las Vegas ,NV ,89135 ,USA,(702) 363-1153 
6062,"2885 East Desert Inn Road",Las Vegas ,NV ,89121 ,USA,(702) 792-7156 
6089,"6885 E Lake Mead Blvd",Las Vegas ,NV ,89156 ,USA,(702) 453-0845 
6017,"7271 S. Eastern Avenue",Las Vegas ,NV ,89119 ,USA,(702) 269-7166 
6009,"8410 Farm Road",Las Vegas ,NV ,89131 ,USA,(702) 658-2030 
6004,"4055 South Durango Drive",Las Vegas ,NV ,89147 ,USA,(702) 869-1474 
6039,"1300 E. Flamingo Rd.",Las Vegas ,NV ,89109 ,USA,(702) 733-2947 
6013,"2550 South Fort Apache Road",Las Vegas ,NV ,89117 ,USA,(702) 242-1138 
6021,"10140 West Flamingo Road",Las Vegas ,NV ,89147 ,USA,(702) 562-1745 
6046,"1001 S. Rainbow Blvd.",Las Vegas ,NV ,89145 ,USA,(702) 877-3338 
6076,"7350 South Rainbow Blvd.",Las Vegas ,NV ,89139 ,USA,(702) 739-1033 
6006,"9725 South Maryland Pkwy",Las Vegas ,NV ,89183 ,USA,(702) 616-1946 
6091,"5881 E. Charleston Blvd.",Las Vegas ,NV ,89142 ,USA,(702) 457-1400 
6018,"7151 West Craig Road",Las Vegas ,NV ,89129 ,USA,(702) 839-9034 
6029,"5975 W. Tropicana Avenue",Las Vegas ,NV ,89103 ,USA,(702) 889-2000 
6011,"1650 North Buffalo Drive",Las Vegas ,NV ,89128 ,USA,(702) 562-6079 
6024,"2835 S. Nellis Bl.",Las Vegas ,NV ,89121 ,USA,(702) 457-1491 
6012,"8350 West Cheyenne Ave.",Las Vegas ,NV ,89129 ,USA,(702) 395-2700 
6005,"3010 West Ann Road",North Las Vegas ,NV ,89031 ,USA,(702) 656-3103 
6041,"200 South Highway 160",Pahrump ,NV ,89048 ,USA,(775) 751-0160 
557,"6055 Southwest 185th Avenue",Aloha ,OR ,97007 ,USA,(503) 642-7059 
573,"2301 Ashland St.",Ashland ,OR ,97520 ,USA,(541) 482-6320 
261,"1120 Campbell Street",Baker City ,OR ,97814 ,USA,(541) 524-0412 
559,"8155 S.w. Hall Blvd",Beaverton ,OR ,97005 ,USA,(503) 641-5546 
588,"61155 S. Hwy 97",Bend ,OR ,97702 ,USA,(541) 382-3600 
587,"1800 N.e. 3rd Street",Bend ,OR ,97701 ,USA,(541) 382-3661 
595,"1360 Plaza Blvd",Central Point ,OR ,97502 ,USA,(541) 665-3761 
503,"14800 S E Sunnyside Rd",Clackamas ,OR ,97015 ,USA,(503) 658-2423 
507,"1675 W. 18th Avenue",Eugene ,OR ,97402 ,USA,(541) 485-7027 
572,"311 Coburg Rd.",Eugene ,OR ,97401 ,USA,(541) 342-7635 
560,"55 Division Ave.",Eugene ,OR ,97404 ,USA,(541) 689-3960 
568,"3075 Hilyard Street",Eugene ,OR ,97405 ,USA,(541) 687-1742 
513,"4740 Royal Avenue",Eugene ,OR ,97402 ,USA,(541) 688-6497 
501,"340 Ne Beacon Drive",Grants Pass ,OR ,97526 ,USA,(541) 476-6334 
537,"1690 Allen Creek Road",Grants Pass ,OR ,97527 ,USA,(541) 471-2148 
590,"7500 Southwest Baseline Road",Hillsboro ,OR ,97123 ,USA,(503) 591-7557 
591,"888 Northeast 25th Avenue",Hillsboro ,OR ,97124 ,USA,(503) 681-8927 
562,"5450 River Road North",Keizer ,OR ,97303 ,USA,(503) 390-3922 
577,"5500 South 6th St.",Klamath Falls ,OR ,97603 ,USA,(541) 882-7239 
569,"11 South State Street",Lake Oswego ,OR ,97034 ,USA,(503) 636-0827 
521,"16199 Southwest Boones Ferry Road",Lake Oswego ,OR ,97035 ,USA,(503) 635-3429 
528,"615 Sw Keck Dr.",Mcminnville ,OR ,97128 ,USA,(503) 474-1087 
508,"910 North Phoenix Road",Medford ,OR ,97504 ,USA,(541) 770-7050 
593,"113 Ross Lane",Medford ,OR ,97501 ,USA,(541) 858-5937 
566,"10830 S.e. Oak",Milwaukie ,OR ,97222 ,USA,(503) 652-0356 
131,"1410 West Park Plaza",Ontario ,OR ,97914 ,USA,(541) 889-9123 
571,"19007 South Beavercreek Rd.",Oregon City ,OR ,97045 ,USA,(503) 657-3248 
564,"451 Northeast 181st St.",Portland ,OR ,97230 ,USA,(503) 666-3801 
582,"11070-c S W Barnes Rd",Portland ,OR ,97225 ,USA,(503) 646-9676 
575,"5850 N.e. Prescott",Portland ,OR ,97218 ,USA,(503) 284-5083 
505,"5415 Sw Beaverton Hwy",Portland ,OR ,97221 ,USA,(503) 246-1713 
596,"18425 Nw West Union Rd",Portland ,OR ,97229 ,USA,(503) 533-5998 
589,"1655 Southwest Odem Medo",Redmond ,OR ,97756 ,USA,(541) 548-6081 
515,"3013 Northwest Stewart Parkway",Roseburg ,OR ,97470 ,USA,(541) 957-9224 
579,"16030 South West Tualatin Sherwood Rd",Sherwood ,OR ,97140 ,USA,(503) 625-9581 
570,"2000 Marcola Road",Springfield ,OR ,97477 ,USA,(541) 746-8850 
574,"5755 S. Main Street",Springfield ,OR ,97478 ,USA,(541) 746-1653 
565,"16200 Southwest Pacific Highway",Tigard ,OR ,97224 ,USA,(503) 684-5070 
576,"14300 Southwest Barrows Road",Tigard ,OR ,97223 ,USA,(503) 590-0543 
536,"25691 Southeast Stark",Troutdale ,OR ,97060 ,USA,(503) 667-1722 
506,"1855 Blankenship Rd",West Linn ,OR ,97068 ,USA,(503) 723-9575 
518,"30299 Southwest Boonesferry Road",Wilsonville ,OR ,97070 ,USA,(503) 582-1876 
4159,"4450 Buffalo Gap Road",Abilene ,TX ,79606 ,USA,(325) 695-5300 
4163,"5950 South Cooper",Arlington ,TX ,76017 ,USA,(817) 557-0185 
4142,"301 SW Plaza Shopping Ctr.",Arlington ,TX ,76016 ,USA,(817) 478-4291 
4242,"6220 US Hwy 287",Arlington ,TX ,76017 ,USA,(817) 478-8901 
4290,"480 Northwest Pkwy",Azle ,TX ,76020 ,USA,(817) 270-1116 
4262,"1300 Airport Freeway",Bedford ,TX ,76022 ,USA,(817) 354-0622 
4279,"833 N E Alsbury Blvd",Burleson ,TX ,76028 ,USA,(817) 447-9106 
4269,"2150 N Josey Lane",Carrollton ,TX ,75006 ,USA,(972) 446-8226 
4133,"427 E FM 1382",Cedar Hill ,TX ,75104 ,USA,(972) 291-9863 
4294,"210 W Katherine P Raines",Cleburne ,TX ,76033 ,USA,(817) 641-2002 
4270,"4000 Glade Rd.",Colleyville ,TX ,76034 ,USA,(817) 354-0505 
4191,"4351 FM 2181",Corinth ,TX ,76210 ,USA,(940) 321-4540 
4140,"7007 Arapaho Road",Dallas ,TX ,75248 ,USA,(972) 387-8996 
4289,"320 Casa Linda Plaza",Dallas ,TX ,75218 ,USA,(214) 319-8220 
4105,"4625 Frankford Rd.",Dallas ,TX ,75287 ,USA,(972) 732-6291 
4182,"3630 Forest Lane",Dallas ,TX ,75229 ,USA,(214) 351-3737 
4168,"3524 Mckinney Ave.",Dallas ,TX ,75204 ,USA,(214) 528-0356 
4132,"6464 E. Mockingbird Lane",Dallas ,TX ,75214 ,USA,(214) 827-4870 
4297,"10203 E Northwest Highway",Dallas ,TX ,75238 ,USA,(214) 221-7440 
4134,"4349 W. Northwest Highway",Dallas ,TX ,75220 ,USA,(214) 357-8374 
4116,"200 West Crawford Street",Denison ,TX ,75020 ,USA,(903) 463-6076 
4152,"2321 West University Drive",Denton ,TX ,76201 ,USA,(940) 383-2391 
4166,"1300 W Beltline Road",Desoto ,TX ,75115 ,USA,(972) 223-1998 
933,"9111 Dyer Street",El Paso ,TX ,79924 ,USA,(915) 751-2337 
994,"5630 N. Desert Blvd.",El Paso ,TX ,79912 ,USA,(915) 845-5069 
999,"10765 Kenworthy",El Paso ,TX ,79924 ,USA,(915) 821-2006 
936,"3100 Mesa Street",El Paso ,TX ,79902 ,USA,(915) 351-1002 
932,"7022 N. Mesa Street",El Paso ,TX ,79912 ,USA,(915) 584-9467 
1006,"5200 Montana Ave.",El Paso ,TX ,79903 ,USA,(915) 778-8996 
1016,"11320 Montwood Dr.",El Paso ,TX ,79936 ,USA,(915) 855-9761 
934,"2200 Yarbrough Dr.",El Paso ,TX ,79925 ,USA,(915) 591-9477 
4106,"1155 N Main Street",Euless ,TX ,76039 ,USA,(817) 354-9195 
4032,"3563 Alton Road",Fort Worth ,TX ,76109 ,USA,(817) 921-9000 
4151,"4400 Western Center Blvd.",Fort Worth ,TX ,76137 ,USA,(817) 232-2180 
4124,"7400 Oakmont",Fort Worth ,TX ,76132 ,USA,(817) 423-9556 
4198,"10800 N. Beach Street",Fort Worth ,TX ,76248 ,USA,(817) 431-8912 
4286,"6700 West Freeway",Fort Worth ,TX ,76116 ,USA,(817) 377-8074 
4223,"9300 Clifford St",Fort Worth ,TX ,76108 ,USA,(817) 246-3366 
4272,"850 E Loop 820",Fort Worth ,TX ,76112 ,USA,(817) 451-0306 
4277,"3525 Sycamore School Rd",Fort Worth ,TX ,76133 ,USA,(817) 346-6497 
4265,"5710 Broadway Blvd",Garland ,TX ,75043 ,USA,(972) 240-7339 
4278,"4126 S Carrier Pkwy",Grand Prairie ,TX ,75052 ,USA,(972) 642-2692 
4231,"215 N Carrier Parkway",Grand Prairie ,TX ,75050 ,USA,(972) 642-6555 
4150,"6308 Lake Worth Blvd.",Lake Worth ,TX ,76135 ,USA,(817) 237-8124 
4280,"1087 W. Main St.",Lewisville ,TX ,75067 ,USA,(972) 420-1969 
4112,"3603 McCann Road",Longview ,TX ,75605 ,USA,(903) 663-2082 
4234,"3001 S Central Expressway",Mc Kinney ,TX ,75069 ,USA,(972) 548-1003 
4296,"6800 W. Virginia Parkway",Mc Kinney ,TX ,75069 ,USA,(972) 542-8083 
4187,"1500 S Beltline Road",Mesquite ,TX ,75149 ,USA,(972) 285-0226 
4129,"2828 Motley Drive",Mesquite ,TX ,75150 ,USA,(972) 270-2406 
4212,"1002 Andrews Highway",Midland ,TX ,79701 ,USA,(432) 694-8841 
4154,"4706 North Midkiff Road",Midland ,TX ,79705 ,USA,(432) 699-0761 
4214,"3317 N Midland Drive",Midland ,TX ,79703 ,USA,(432) 689-8683 
4101,"150 E FM 544 ",Murphy ,TX ,75094 ,USA,(972) 424-8765 
4217,"1350 East Eighth St",Odessa ,TX ,79761 ,USA,(432) 332-8291 
4155,"4950 E. 42nd Street",Odessa ,TX ,79762 ,USA,(432) 367-4976 
4215,"2751 County Road West",Odessa ,TX ,79764 ,USA,(432) 333-1685 
4123,"1301 Custer Road",Plano ,TX ,75075 ,USA,(972) 423-7016 
4260,"2165 E Buckingham Dr",Richardson ,TX ,75081 ,USA,(972) 680-1711 
4149,"1108 N Highway 377",Roanoke ,TX ,76262 ,USA,(817) 491-3343 
4197,"8505 Lakeview Parkway",Rowlett ,TX ,75088 ,USA,(972) 475-1215 
4102,"1201 N. Saginaw Boulevard",Saginaw ,TX ,76179 ,USA,(817) 232-2777 
4158,"3121 Sunset Drive",San Angelo ,TX ,76904 ,USA,(325) 942-6627 
4126,"100 East Taylor Street",Sherman ,TX ,75090 ,USA,(903) 868-9686 
4243,"2315 Richmond Road",Texarkana ,TX ,75503 ,USA,(903) 832-2561 
4135,"4415 West 7TH",Texarkana ,TX ,75501 ,USA,(903) 831-7226 
4267,"6249 Rufe Snow Drive",Watauga ,TX ,76148 ,USA,(817) 428-0541 
4193,"8428 Denton Hwy",Watauga ,TX ,76148 ,USA,(817) 581-4135 
4176,"225 E Spring St",Weatherford ,TX ,76086 ,USA,(817) 594-9390 
4239,"921 Westgate Way",Wylie ,TX ,75098 ,USA,(972) 429-7840 
329,"745 North Dixie Drive",Saint George ,UT ,84770 ,USA,(435) 688-7156 
339,"740 N Main",Tooele ,UT ,84074 ,USA,(435) 882-8240 
301,"915 Redcliffs Drive",Washington ,UT ,84780 ,USA,(435) 628-0424 
483,"4010 A Street",Auburn ,WA ,98002 ,USA,(253) 939-1850 
592,"2108 West Main Street",Battle Ground ,WA ,98604 ,USA,(360) 687-4130 
444,"15100 Se 38th St",Bellevue ,WA ,98006 ,USA,(425) 641-2783 
416,"1650 Birchwood Ave",Bellingham ,WA ,98225 ,USA,(360) 733-9244 
443,"2900 Wheaton Way",Bremerton ,WA ,98310 ,USA,(360) 377-0220 
473,"12725 First Ave S",Burien ,WA ,98168 ,USA,(206) 439-7212 
411,"15840 1st Avenue South",Burien ,WA ,98148 ,USA,(206) 243-8080 
241,"400 Bridge Street",Clarkston ,WA ,99403 ,USA,(509) 758-5523 
461,"520 128th St Sw",Everett ,WA ,98204 ,USA,(425) 347-3681 
478,"6727 Evergreen Way",Everett ,WA ,98203 ,USA,(425) 353-7157 
496,"31009 Pacific Hwy South",Federal Way ,WA ,98003 ,USA,(253) 946-4002 
406,"11330 Nw 51st Avenue",Gig Harbor ,WA ,98332 ,USA,(253) 853-4750 
253,"5204 West Clearwater",Kennewick ,WA ,99336 ,USA,(509) 783-1457 
486,"8196 Northeast Highway 104",Kingston ,WA ,98346 ,USA,(360) 297-1800 
425,"17171 Bothell Way Northeast",Lake Forest Park ,WA ,98155 ,USA,(206) 363-5397 
477,"303 91st Avenue Northeast #f",Lake Stevens ,WA ,98258 ,USA,(425) 335-3421 
465,"8611 Steilacoom Blvd Sw",Lakewood ,WA ,98498 ,USA,(253) 582-5844 
248,"1304 N Liberty Lake Rd",Liberty Lake ,WA ,99019 ,USA,(509) 924-2374 
485,"19500 Highway 99 Suite 110",Lynnwood ,WA ,98036 ,USA,(425) 670-9803 
469,"12811 Beverly Park Rd",Lynnwood ,WA ,98087 ,USA,(425) 347-3060 
471,"301 Marysville Mall #60",Marysville ,WA ,98270 ,USA,(360) 659-5841 
450,"2755 77th Ave Se",Mercer Island ,WA ,98040 ,USA,(206) 232-0244 
458,"16304 Bothell Everett Hwy",Mill Creek ,WA ,98012 ,USA,(425) 743-3095 
413,"3322 132nd Street Southeast",Mill Creek ,WA ,98012 ,USA,(425) 338-0775 
246,"8851 E Trent Avenue",Millwood ,WA ,99212 ,USA,(509) 924-9014 
472,"2800 Milton Way",Milton ,WA ,98354 ,USA,(253) 952-2029 
476,"19881 State Route 2",Monroe ,WA ,98272 ,USA,(360) 794-8951 
414,"4301 212th Street Sw",Mountlake Terrace ,WA ,98043 ,USA,(425) 775-4154 
402,"1450 Sw Erie Stree",Oak Harbor ,WA ,98277 ,USA,(360) 279-8828 
415,"3520 Pacific Ave Southeast",Olympia ,WA ,98501 ,USA,(360) 459-9340 
228,"1330 N 20th Ave",Pasco ,WA ,99301 ,USA,(509) 547-8858 
404,"114 East Lauridsen Blvd",Port Angeles ,WA ,98362 ,USA,(360) 452-2307 
475,"1434 Olney Ave Se",Port Orchard ,WA ,98366 ,USA,(360) 895-2292 
419,"370 Sw Sedgwick Rd",Port Orchard ,WA ,98367 ,USA,(360) 876-2085 
466,"19561 7th Avenue Northeast",Poulsbo ,WA ,98370 ,USA,(360) 697-2302 
468,"11012 Canyon Rd East",Puyallup ,WA ,98373 ,USA,(253) 537-3770 
403,"3925 236th Ave Ne",Redmond ,WA ,98053 ,USA,(425) 836-8112 
470,"14215 Se Petrovitsky Rd",Renton ,WA ,98058 ,USA,(425) 235-7700 
453,"4621 Ne Sunset Blvd",Renton ,WA ,98059 ,USA,(425) 271-2564 
213,"1320 Lee Boulevard",Richland ,WA ,99352 ,USA,(509) 943-1155 
252,"690 Gage Blvd",Richland ,WA ,99352 ,USA,(509) 627-4714 
410,"13050 Aurora Avenue North",Seattle ,WA ,98133 ,USA,(206) 306-8780 
408,"2550 32nd Avenue West",Seattle ,WA ,98199 ,USA,(206) 283-9434 
492,"2222 Nw Bucklin Hill Rd",Silverdale ,WA ,98383 ,USA,(360) 692-8088 
401,"17520 Sr 9 Southeast",Snohomish ,WA ,98296 ,USA,(360) 668-1132 
268,"3010 East 57th Ave",Spokane ,WA ,99223 ,USA,(509) 443-6403 
206,"9001 N Indian Trail Rd",Spokane ,WA ,99208 ,USA,(509) 465-8110 
265,"6520 North Nevada",Spokane ,WA ,99208 ,USA,(509) 489-1250 
240,"510 East 37th Ave",Spokane ,WA ,99203 ,USA,(509) 455-4442 
258,"13606 East 32nd Avenue",Spokane ,WA ,99206 ,USA,(509) 892-2112 
242,"12312 N Division St",Spokane ,WA ,99218 ,USA,(509) 466-1144 
493,"104 Military Rd",Tacoma ,WA ,98444 ,USA,(253) 538-1688 
498,"111 South 38th Street",Tacoma ,WA ,98408 ,USA,(253) 474-0946 
407,"705 Trosper Road Southwest",Tumwater ,WA ,98511 ,USA,(360) 705-3569 
580,"14300 Northeast. 20th Ave.",Vancouver ,WA ,98686 ,USA,(360) 576-4066 
225,"450 North Wilbur Avenue",Walla Walla ,WA ,99362 ,USA,(509) 529-1710 
244,"1128 North Miller",Wenatchee ,WA ,98801 ,USA,(509) 663-8547 
459,"14019 Woodinville Duvall Rd",Woodinville ,WA ,98072 ,USA,(425) 483-9353 
239,"401 S 40th Ave",Yakima ,WA ,98908 ,USA,(509) 965-0633 
249,"1610 West Lincoln",Yakima ,WA ,98902 ,USA,(509) 248-4274 
2062,"2625 East 2nd Street",Casper ,WY ,82609 ,USA,(307) 237-9361 
2060,"1076 Cy Ave",Casper ,WY ,82604 ,USA,(307) 266-0136 
2065,"3355 East Pershing Blvd",Cheyenne ,WY ,82001 ,USA,(307) 635-1151 
2066,"5800 Yellowstone Road",Cheyenne ,WY ,82009 ,USA,(307) 637-8171 
2061,"1825 17th Street",Cody ,WY ,82414 ,USA,(307) 527-7007 
2067,"2610 South Douglas Highway",Gillette ,WY ,82718 ,USA,(307) 686-7352 
183,"105 Buffalo Way",Jackson ,WY ,83001 ,USA,(307) 733-5950 
2063,"3112 East Grand Avenue",Laramie ,WY ,82070 ,USA,(307) 742-8146 
342,"1323 Dewar Drive",Rock Springs ,WY ,82901 ,USA,(307) 362-8386 
2064,"1865 Coffeen Avenue",Sheridan ,WY ,82801 ,USA,(307) 672-8909 
